19.5
-----
14.6
14.45
13.45
13.55
13.0
13.4
14.3
12.85
12.0
14.05
13.35
13.8
13.5
14.2
14.3
14.3
12.75
12.8
13.85
13.45
12.35
12.55
13.7
14.25
10.7
13.3
13.45
14.6
13.1
14.4
12.05
13.7
13.7
13.3
12.1
13.55
12.75
14.1
11.9
14.2
14.1
13.55
13.15
13.65
12.95
13.05
13.0
11.5
13.3
13.15
14.2