19.5
---
14.1
14.1
13.4
14.2
14.0
14.1
13.9
14.0
14.0
12.0
13.55
13.2
13.5
14.0
13.3
13.0
14.35
13.0
14.0
14.0
14.3
14.0
13.6
14.3
13.8
13.6
14.0
12.8
13.5
13.4
12.75
10.5
13.6
12.95
12.75
13.9
13.6
12.75
12.9
12.0
12.5
13.6
13.3
12.45
13.5
13.5
14.35
12.4
14.0
13.8
13.7
13.75
13.45
13.9
13.6
12.7
13.5
14.1
13.75