19.5
---
13.25
13.8
13.2
13.5
11.2
14.3
14.1
13.95
14.2
13.2
14.0
13.5
13.5
14.05
13.55
13.5
13.25
13.5
14.0
14.1
14.0
14.0
13.6
14.05
14.5
14.4
14.5
13.5
13.2
14.5
14.5
14.5
14.05
12.1
13.85
14.2
13.15
14.3
13.5
13.6
14.0
13.6
13.95
14.1
14.0
13.75
13.55
14.35
13.75
14.6
13.2
14.0
13.7
14.0
14.6
14.25
14.3
14.6
14.0
14.0
13.45
13.25
12.8
13.1
14.1
14.0
14.7